{
  "defaultSeverity": "error",
  "extends": [
    "tslint:recommended"
  ],
  "jsRules": {
    "quotemark": {
      "options": "single",
      "severity": "warn"
    }
  },
  "rules": {},
  "rulesDirectory": []
}